<?xml version="1.0" encoding="utf-8"?>
<!DOCTYPE eagle SYSTEM "eagle.dtd">
<eagle version="9.6.2">
<drawing>
<settings>
<setting alwaysvectorfont="no"/>
<setting verticaltext="up"/>
</settings>
<grid distance="0.1" unitdist="mm" unit="mm" style="lines" multiple="1" display="yes" altdistance="0.01" altunitdist="mm" altunit="mm"/>
<layers>
<layer number="1" name="Top" color="4" fill="1" visible="yes" active="yes"/>
<layer number="2" name="Route2" color="1" fill="3" visible="no" active="no"/>
<layer number="3" name="Route3" color="4" fill="3" visible="no" active="no"/>
<layer number="4" name="Route4" color="1" fill="4" visible="no" active="no"/>
<layer number="5" name="Route5" color="4" fill="4" visible="no" active="no"/>
<layer number="6" name="Route6" color="1" fill="8" visible="no" active="no"/>
<layer number="7" name="Route7" color="4" fill="8" visible="no" active="no"/>
<layer number="8" name="Route8" color="1" fill="2" visible="no" active="no"/>
<layer number="9" name="Route9" color="4" fill="2" visible="no" active="no"/>
<layer number="10" name="Route10" color="1" fill="7" visible="no" active="no"/>
<layer number="11" name="Route11" color="4" fill="7" visible="no" active="no"/>
<layer number="12" name="Route12" color="1" fill="5" visible="no" active="no"/>
<layer number="13" name="Route13" color="4" fill="5" visible="no" active="no"/>
<layer number="14" name="Route14" color="1" fill="6" visible="no" active="no"/>
<layer number="15" name="Route15" color="4" fill="6" visible="no" active="no"/>
<layer number="16" name="Bottom" color="1" fill="1" visible="yes" active="yes"/>
<layer number="17" name="Pads" color="2" fill="1" visible="yes" active="yes"/>
<layer number="18" name="Vias" color="2" fill="1" visible="yes" active="yes"/>
<layer number="19" name="Unrouted" color="6" fill="1" visible="yes" active="yes"/>
<layer number="20" name="Dimension" color="24" fill="1" visible="yes" active="yes"/>
<layer number="21" name="tPlace" color="7" fill="1" visible="yes" active="yes"/>
<layer number="22" name="bPlace" color="7" fill="1" visible="yes" active="yes"/>
<layer number="23" name="tOrigins" color="15" fill="1" visible="yes" active="yes"/>
<layer number="24" name="bOrigins" color="15" fill="1" visible="yes" active="yes"/>
<layer number="25" name="tNames" color="7" fill="1" visible="yes" active="yes"/>
<layer number="26" name="bNames" color="7" fill="1" visible="yes" active="yes"/>
<layer number="27" name="tValues" color="7" fill="1" visible="no" active="yes"/>
<layer number="28" name="bValues" color="7" fill="1" visible="yes" active="yes"/>
<layer number="29" name="tStop" color="7" fill="3" visible="no" active="yes"/>
<layer number="30" name="bStop" color="7" fill="6" visible="no" active="yes"/>
<layer number="31" name="tCream" color="7" fill="4" visible="no" active="yes"/>
<layer number="32" name="bCream" color="7" fill="5" visible="no" active="yes"/>
<layer number="33" name="tFinish" color="6" fill="3" visible="no" active="yes"/>
<layer number="34" name="bFinish" color="6" fill="6" visible="no" active="yes"/>
<layer number="35" name="tGlue" color="7" fill="4" visible="no" active="yes"/>
<layer number="36" name="bGlue" color="7" fill="5" visible="no" active="yes"/>
<layer number="37" name="tTest" color="7" fill="1" visible="no" active="yes"/>
<layer number="38" name="bTest" color="7" fill="1" visible="no" active="yes"/>
<layer number="39" name="tKeepout" color="4" fill="11" visible="yes" active="yes"/>
<layer number="40" name="bKeepout" color="1" fill="11" visible="yes" active="yes"/>
<layer number="41" name="tRestrict" color="4" fill="10" visible="yes" active="yes"/>
<layer number="42" name="bRestrict" color="1" fill="10" visible="yes" active="yes"/>
<layer number="43" name="vRestrict" color="2" fill="10" visible="yes" active="yes"/>
<layer number="44" name="Drills" color="7" fill="1" visible="no" active="yes"/>
<layer number="45" name="Holes" color="7" fill="1" visible="no" active="yes"/>
<layer number="46" name="Milling" color="3" fill="1" visible="no" active="yes"/>
<layer number="47" name="Measures" color="7" fill="1" visible="no" active="yes"/>
<layer number="48" name="Document" color="7" fill="1" visible="yes" active="yes"/>
<layer number="49" name="Reference" color="7" fill="1" visible="yes" active="yes"/>
<layer number="50" name="dxf" color="7" fill="1" visible="no" active="no"/>
<layer number="51" name="tDocu" color="7" fill="1" visible="yes" active="yes"/>
<layer number="52" name="bDocu" color="7" fill="1" visible="yes" active="yes"/>
<layer number="53" name="tGND_GNDA" color="7" fill="9" visible="no" active="no"/>
<layer number="54" name="bGND_GNDA" color="1" fill="9" visible="no" active="no"/>
<layer number="56" name="wert" color="7" fill="1" visible="no" active="no"/>
<layer number="57" name="tCAD" color="7" fill="1" visible="no" active="no"/>
<layer number="59" name="tCarbon" color="7" fill="1" visible="no" active="no"/>
<layer number="60" name="bCarbon" color="7" fill="1" visible="no" active="no"/>
<layer number="88" name="SimResults" color="9" fill="1" visible="no" active="no"/>
<layer number="89" name="SimProbes" color="9" fill="1" visible="no" active="no"/>
<layer number="90" name="Modules" color="5" fill="1" visible="no" active="no"/>
<layer number="91" name="Nets" color="2" fill="1" visible="no" active="no"/>
<layer number="92" name="Busses" color="1" fill="1" visible="no" active="no"/>
<layer number="93" name="Pins" color="2" fill="1" visible="no" active="no"/>
<layer number="94" name="Symbols" color="4" fill="1" visible="no" active="no"/>
<layer number="95" name="Names" color="7" fill="1" visible="no" active="no"/>
<layer number="96" name="Values" color="7" fill="1" visible="no" active="no"/>
<layer number="97" name="Info" color="7" fill="1" visible="no" active="no"/>
<layer number="98" name="Guide" color="6" fill="1" visible="no" active="no"/>
<layer number="99" name="SpiceOrder" color="7" fill="1" visible="no" active="no"/>
<layer number="100" name="Muster" color="7" fill="1" visible="no" active="no"/>
<layer number="101" name="Patch_Top" color="12" fill="4" visible="yes" active="yes"/>
<layer number="102" name="Vscore" color="7" fill="1" visible="yes" active="yes"/>
<layer number="103" name="tMap" color="7" fill="1" visible="yes" active="yes"/>
<layer number="104" name="Name" color="16" fill="1" visible="yes" active="yes"/>
<layer number="105" name="tPlate" color="7" fill="1" visible="yes" active="yes"/>
<layer number="106" name="bPlate" color="7" fill="1" visible="yes" active="yes"/>
<layer number="107" name="Crop" color="7" fill="1" visible="yes" active="yes"/>
<layer number="108" name="tplace-old" color="10" fill="1" visible="yes" active="yes"/>
<layer number="109" name="ref-old" color="11" fill="1" visible="yes" active="yes"/>
<layer number="110" name="fp0" color="7" fill="1" visible="yes" active="yes"/>
<layer number="111" name="LPC17xx" color="7" fill="1" visible="yes" active="yes"/>
<layer number="112" name="tSilk" color="7" fill="1" visible="yes" active="yes"/>
<layer number="113" name="IDFDebug" color="7" fill="1" visible="yes" active="yes"/>
<layer number="114" name="Badge_Outline" color="7" fill="1" visible="yes" active="yes"/>
<layer number="115" name="ReferenceISLANDS" color="7" fill="1" visible="yes" active="yes"/>
<layer number="116" name="Patch_BOT" color="9" fill="4" visible="yes" active="yes"/>
<layer number="118" name="Rect_Pads" color="7" fill="1" visible="yes" active="yes"/>
<layer number="121" name="_tsilk" color="7" fill="1" visible="yes" active="yes"/>
<layer number="122" name="_bsilk" color="7" fill="1" visible="yes" active="yes"/>
<layer number="123" name="tTestmark" color="7" fill="1" visible="yes" active="yes"/>
<layer number="124" name="bTestmark" color="7" fill="1" visible="yes" active="yes"/>
<layer number="125" name="_tNames" color="7" fill="1" visible="yes" active="yes"/>
<layer number="126" name="_bNames" color="7" fill="1" visible="yes" active="yes"/>
<layer number="127" name="_tValues" color="7" fill="1" visible="yes" active="yes"/>
<layer number="128" name="_bValues" color="7" fill="1" visible="yes" active="yes"/>
<layer number="129" name="Mask" color="7" fill="1" visible="yes" active="yes"/>
<layer number="131" name="tAdjust" color="7" fill="1" visible="yes" active="yes"/>
<layer number="132" name="bAdjust" color="7" fill="1" visible="yes" active="yes"/>
<layer number="144" name="Drill_legend" color="7" fill="1" visible="yes" active="yes"/>
<layer number="150" name="Notes" color="7" fill="1" visible="yes" active="yes"/>
<layer number="151" name="HeatSink" color="7" fill="1" visible="yes" active="yes"/>
<layer number="152" name="_bDocu" color="7" fill="1" visible="yes" active="yes"/>
<layer number="153" name="FabDoc1" color="7" fill="1" visible="yes" active="yes"/>
<layer number="154" name="FabDoc2" color="7" fill="1" visible="yes" active="yes"/>
<layer number="155" name="FabDoc3" color="7" fill="1" visible="yes" active="yes"/>
<layer number="197" name="PracDim" color="7" fill="1" visible="yes" active="yes"/>
<layer number="199" name="Contour" color="7" fill="1" visible="yes" active="yes"/>
<layer number="200" name="200bmp" color="1" fill="10" visible="yes" active="yes"/>
<layer number="201" name="201bmp" color="2" fill="10" visible="yes" active="yes"/>
<layer number="202" name="202bmp" color="3" fill="10" visible="yes" active="yes"/>
<layer number="203" name="203bmp" color="4" fill="10" visible="yes" active="yes"/>
<layer number="204" name="204bmp" color="5" fill="10" visible="yes" active="yes"/>
<layer number="205" name="205bmp" color="6" fill="10" visible="yes" active="yes"/>
<layer number="206" name="206bmp" color="7" fill="10" visible="yes" active="yes"/>
<layer number="207" name="207bmp" color="8" fill="10" visible="yes" active="yes"/>
<layer number="208" name="208bmp" color="9" fill="10" visible="yes" active="yes"/>
<layer number="209" name="209bmp" color="7" fill="1" visible="yes" active="yes"/>
<layer number="210" name="210bmp" color="7" fill="1" visible="yes" active="yes"/>
<layer number="211" name="211bmp" color="7" fill="1" visible="yes" active="yes"/>
<layer number="212" name="212bmp" color="7" fill="1" visible="yes" active="yes"/>
<layer number="213" name="213bmp" color="7" fill="1" visible="yes" active="yes"/>
<layer number="214" name="214bmp" color="7" fill="1" visible="yes" active="yes"/>
<layer number="215" name="215bmp" color="7" fill="1" visible="yes" active="yes"/>
<layer number="216" name="216bmp" color="7" fill="1" visible="yes" active="yes"/>
<layer number="217" name="217bmp" color="18" fill="1" visible="no" active="no"/>
<layer number="218" name="218bmp" color="19" fill="1" visible="no" active="no"/>
<layer number="219" name="219bmp" color="20" fill="1" visible="no" active="no"/>
<layer number="220" name="220bmp" color="21" fill="1" visible="no" active="no"/>
<layer number="221" name="221bmp" color="22" fill="1" visible="no" active="no"/>
<layer number="222" name="222bmp" color="23" fill="1" visible="no" active="no"/>
<layer number="223" name="223bmp" color="24" fill="1" visible="no" active="no"/>
<layer number="224" name="224bmp" color="25" fill="1" visible="no" active="no"/>
<layer number="225" name="225bmp" color="7" fill="1" visible="yes" active="yes"/>
<layer number="226" name="226bmp" color="7" fill="1" visible="yes" active="yes"/>
<layer number="227" name="227bmp" color="7" fill="1" visible="yes" active="yes"/>
<layer number="228" name="228bmp" color="7" fill="1" visible="yes" active="yes"/>
<layer number="229" name="229bmp" color="7" fill="1" visible="yes" active="yes"/>
<layer number="230" name="230bmp" color="7" fill="1" visible="yes" active="yes"/>
<layer number="231" name="231bmp" color="7" fill="1" visible="yes" active="yes"/>
<layer number="248" name="Housing" color="7" fill="1" visible="yes" active="yes"/>
<layer number="249" name="Edge" color="7" fill="1" visible="yes" active="yes"/>
<layer number="250" name="Descript" color="3" fill="1" visible="no" active="no"/>
<layer number="251" name="SMDround" color="12" fill="11" visible="no" active="no"/>
<layer number="254" name="cooling" color="7" fill="1" visible="yes" active="yes"/>
<layer number="255" name="routoute" color="7" fill="1" visible="yes" active="yes"/>
</layers>
<board>
<plain>
<wire x1="0" y1="0" x2="49.51" y2="0" width="0" layer="20"/>
<wire x1="49.51" y1="0" x2="49.51" y2="79.68" width="0" layer="20"/>
<wire x1="49.51" y1="79.68" x2="0" y2="79.68" width="0" layer="20" locked="yes"/>
<wire x1="0" y1="79.68" x2="0" y2="0" width="0" layer="20"/>
<dimension x1="0" y1="0" x2="49.51" y2="0" x3="24.755" y3="-6.35" textsize="1.778" layer="209"/>
<dimension x1="0" y1="0" x2="0" y2="79.68" x3="-6.35" y3="39.84" textsize="1.778" layer="209"/>
<wire x1="2.54" y1="77.47" x2="46.609" y2="77.47" width="0.1524" layer="209"/>
<wire x1="46.609" y1="77.47" x2="46.609" y2="34.29" width="0.1524" layer="209"/>
<wire x1="46.609" y1="34.29" x2="2.54" y2="34.29" width="0.1524" layer="209"/>
<wire x1="2.54" y1="34.29" x2="2.54" y2="77.47" width="0.1524" layer="209"/>
<text x="27.94" y="3.81" size="1.778" layer="25" font="vector" ratio="11">Design by V. B.
2017-2021 R3</text>
<text x="45.339" y="31.115" size="1.778" layer="25" font="vector" ratio="11">ON</text>
<text x="43.434" y="51.562" size="1.016" layer="25">+1.5V</text>
</plain>
<libraries>
<library name="con-lstb" urn="urn:adsk.eagle:library:162">
<description>&lt;b&gt;Pin Headers&lt;/b&gt;&lt;p&gt;
Naming:&lt;p&gt;
MA = male&lt;p&gt;
# contacts - # rows&lt;p&gt;
W = angled&lt;p&gt;
&lt;author&gt;Created by librarian@cadsoft.de&lt;/author&gt;</description>
<packages>
<package name="MA03-2" urn="urn:adsk.eagle:footprint:8265/1" library_version="1">
<description>&lt;b&gt;PIN HEADER&lt;/b&gt;</description>
<wire x1="-3.175" y1="2.54" x2="-1.905" y2="2.54" width="0.1524" layer="21"/>
<wire x1="-1.905" y1="2.54" x2="-1.27" y2="1.905" width="0.1524" layer="21"/>
<wire x1="-1.27" y1="1.905" x2="-0.635" y2="2.54" width="0.1524" layer="21"/>
<wire x1="-0.635" y1="2.54" x2="0.635" y2="2.54" width="0.1524" layer="21"/>
<wire x1="0.635" y1="2.54" x2="1.27" y2="1.905" width="0.1524" layer="21"/>
<wire x1="-3.175" y1="2.54" x2="-3.81" y2="1.905" width="0.1524" layer="21"/>
<wire x1="1.27" y1="1.905" x2="1.905" y2="2.54" width="0.1524" layer="21"/>
<wire x1="1.905" y1="2.54" x2="3.175" y2="2.54" width="0.1524" layer="21"/>
<wire x1="3.175" y1="2.54" x2="3.81" y2="1.905" width="0.1524" layer="21"/>
<wire x1="3.81" y1="1.905" x2="3.81" y2="-1.905" width="0.1524" layer="21"/>
<wire x1="-1.27" y1="-1.905" x2="-1.905" y2="-2.54" width="0.1524" layer="21"/>
<wire x1="1.27" y1="-1.905" x2="0.635" y2="-2.54" width="0.1524" layer="21"/>
<wire x1="0.635" y1="-2.54" x2="-0.635" y2="-2.54" width="0.1524" layer="21"/>
<wire x1="-0.635" y1="-2.54" x2="-1.27" y2="-1.905" width="0.1524" layer="21"/>
<wire x1="-3.81" y1="1.905" x2="-3.81" y2="-1.905" width="0.1524" layer="21"/>
<wire x1="-3.81" y1="-1.905" x2="-3.175" y2="-2.54" width="0.1524" layer="21"/>
<wire x1="-1.905" y1="-2.54" x2="-3.175" y2="-2.54" width="0.1524" layer="21"/>
<wire x1="3.81" y1="-1.905" x2="3.175" y2="-2.54" width="0.1524" layer="21"/>
<wire x1="3.175" y1="-2.54" x2="1.905" y2="-2.54" width="0.1524" layer="21"/>
<wire x1="1.905" y1="-2.54" x2="1.27" y2="-1.905" width="0.1524" layer="21"/>
<pad name="1" x="-2.54" y="-1.27" drill="1.016"/>
<pad name="3" x="0" y="-1.27" drill="1.016" shape="octagon"/>
<pad name="5" x="2.54" y="-1.27" drill="1.016" shape="octagon"/>
<pad name="2" x="-2.54" y="1.27" drill="1.016" shape="octagon"/>
<pad name="4" x="0" y="1.27" drill="1.016" shape="octagon"/>
<pad name="6" x="2.54" y="1.27" drill="1.016" shape="octagon"/>
<text x="-3.175" y="-4.191" size="1.27" layer="21" ratio="10">1</text>
<text x="-3.81" y="2.921" size="1.27" layer="25" ratio="10">&gt;NAME</text>
<text x="4.064" y="0.635" size="1.27" layer="21" ratio="10">6</text>
<text x="-1.27" y="-4.191" size="1.27" layer="27" ratio="10">&gt;VALUE</text>
<rectangle x1="-0.254" y1="-1.524" x2="0.254" y2="-1.016" layer="51"/>
<rectangle x1="-2.794" y1="-1.524" x2="-2.286" y2="-1.016" layer="51"/>
<rectangle x1="2.286" y1="-1.524" x2="2.794" y2="-1.016" layer="51"/>
<rectangle x1="-2.794" y1="1.016" x2="-2.286" y2="1.524" layer="51"/>
<rectangle x1="-0.254" y1="1.016" x2="0.254" y2="1.524" layer="51"/>
<rectangle x1="2.286" y1="1.016" x2="2.794" y2="1.524" layer="51"/>
</package>
</packages>
<packages3d>
<package3d name="MA03-2" urn="urn:adsk.eagle:package:8334/1" type="box" library_version="1">
<description>PIN HEADER</description>
</package3d>
</packages3d>
</library>
<library name="pinhead" urn="urn:adsk.eagle:library:325">
<description>&lt;b&gt;Pin Header Connectors&lt;/b&gt;&lt;p&gt;
&lt;author&gt;Created by librarian@cadsoft.de&lt;/author&gt;</description>
<packages>
<package name="1X02" urn="urn:adsk.eagle:footprint:22309/1" library_version="3">
<description>&lt;b&gt;PIN HEADER&lt;/b&gt;</description>
<wire x1="-1.905" y1="1.27" x2="-0.635" y2="1.27" width="0.1524" layer="21"/>
<wire x1="-0.635" y1="1.27" x2="0" y2="0.635" width="0.1524" layer="21"/>
<wire x1="0" y1="0.635" x2="0" y2="-0.635" width="0.1524" layer="21"/>
<wire x1="0" y1="-0.635" x2="-0.635" y2="-1.27" width="0.1524" layer="21"/>
<wire x1="-2.54" y1="0.635" x2="-2.54" y2="-0.635" width="0.1524" layer="21"/>
<wire x1="-1.905" y1="1.27" x2="-2.54" y2="0.635" width="0.1524" layer="21"/>
<wire x1="-2.54" y1="-0.635" x2="-1.905" y2="-1.27" width="0.1524" layer="21"/>
<wire x1="-0.635" y1="-1.27" x2="-1.905" y2="-1.27" width="0.1524" layer="21"/>
<wire x1="0" y1="0.635" x2="0.635" y2="1.27" width="0.1524" layer="21"/>
<wire x1="0.635" y1="1.27" x2="1.905" y2="1.27" width="0.1524" layer="21"/>
<wire x1="1.905" y1="1.27" x2="2.54" y2="0.635" width="0.1524" layer="21"/>
<wire x1="2.54" y1="0.635" x2="2.54" y2="-0.635" width="0.1524" layer="21"/>
<wire x1="2.54" y1="-0.635" x2="1.905" y2="-1.27" width="0.1524" layer="21"/>
<wire x1="1.905" y1="-1.27" x2="0.635" y2="-1.27" width="0.1524" layer="21"/>
<wire x1="0.635" y1="-1.27" x2="0" y2="-0.635" width="0.1524" layer="21"/>
<pad name="1" x="-1.27" y="0" drill="1.016" shape="long" rot="R90"/>
<pad name="2" x="1.27" y="0" drill="1.016" shape="long" rot="R90"/>
<text x="-2.6162" y="1.8288" size="1.27" layer="25" ratio="10">&gt;NAME</text>
<text x="-2.54" y="-3.175" size="1.27" layer="27">&gt;VALUE</text>
<rectangle x1="-1.524" y1="-0.254" x2="-1.016" y2="0.254" layer="51"/>
<rectangle x1="1.016" y1="-0.254" x2="1.524" y2="0.254" layer="51"/>
</package>
</packages>
<packages3d>
<package3d name="1X02" urn="urn:adsk.eagle:package:22435/2" type="model" library_version="3">
<description>PIN HEADER</description>
</package3d>
</packages3d>
</library>
<library name="snake-328-hw-smd">
<packages>
<package name="SOT23_6">
<text x="-1" y="2.03" size="1.27" layer="25">&gt;NAME</text>
<text x="-1" y="-3.27" size="1.27" layer="27">&gt;VALUE</text>
<wire x1="1" y1="1.7" x2="0.4" y2="1.7" width="0.127" layer="21"/>
<wire x1="0.4" y1="1.7" x2="-0.4" y2="1.7" width="0.127" layer="21"/>
<wire x1="-0.4" y1="1.7" x2="-1" y2="1.7" width="0.127" layer="21"/>
<wire x1="-1" y1="1.7" x2="-1" y2="-1.7" width="0.127" layer="21"/>
<wire x1="1" y1="1.7" x2="1" y2="-1.7" width="0.127" layer="21"/>
<wire x1="1" y1="-1.7" x2="-1" y2="-1.7" width="0.127" layer="21"/>
<smd name="1" x="-1.3" y="0.95" dx="1.3" dy="0.7" layer="1" roundness="100"/>
<smd name="3" x="-1.3" y="-0.95" dx="1.3" dy="0.7" layer="1" roundness="100"/>
<smd name="2" x="-1.3" y="0" dx="1.3" dy="0.7" layer="1" roundness="100"/>
<smd name="6" x="1.3" y="0.95" dx="1.3" dy="0.7" layer="1" roundness="100"/>
<smd name="4" x="1.3" y="-0.95" dx="1.3" dy="0.7" layer="1" roundness="100"/>
<smd name="5" x="1.3" y="0" dx="1.3" dy="0.7" layer="1" roundness="100"/>
<wire x1="0.4" y1="1.7" x2="-0.4" y2="1.7" width="0.127" layer="21" curve="-180"/>
</package>
<package name="JS202011SCQN">
<smd name="1" x="-3" y="2.5" dx="3" dy="1.2" layer="1" roundness="100"/>
<smd name="2" x="-3" y="0" dx="3" dy="1.2" layer="1" roundness="100"/>
<smd name="3" x="-3" y="-2.5" dx="3" dy="1.2" layer="1" roundness="100"/>
<smd name="4" x="3" y="2.5" dx="3" dy="1.2" layer="1" roundness="100"/>
<smd name="5" x="3" y="0" dx="3" dy="1.2" layer="1" roundness="100"/>
<smd name="6" x="3" y="-2.5" dx="3" dy="1.2" layer="1" roundness="100"/>
<wire x1="-1.8" y1="4.5" x2="-1.8" y2="-4.5" width="0.127" layer="21"/>
<wire x1="-1.8" y1="-4.5" x2="1.8" y2="-4.5" width="0.127" layer="21"/>
<wire x1="1.8" y1="-4.5" x2="1.8" y2="4.5" width="0.127" layer="21"/>
<wire x1="1.8" y1="4.5" x2="-1.8" y2="4.5" width="0.127" layer="21"/>
<text x="-1.8" y="4.8" size="1.27" layer="25">&gt;NAME</text>
<text x="-1.8" y="-6.1" size="1.27" layer="27">&gt;VALUE</text>
<wire x1="0.7" y1="2.3" x2="-0.7" y2="2.3" width="0.1524" layer="21"/>
<wire x1="-0.7" y1="2.3" x2="-0.7" y2="-0.3" width="0.1524" layer="21"/>
<wire x1="-0.7" y1="-0.3" x2="-0.7" y2="-0.8" width="0.1524" layer="21"/>
<wire x1="-0.7" y1="-0.8" x2="-0.7" y2="-1.3" width="0.1524" layer="21"/>
<wire x1="-0.7" y1="-1.3" x2="-0.7" y2="-1.8" width="0.1524" layer="21"/>
<wire x1="-0.7" y1="-1.8" x2="-0.7" y2="-2.3" width="0.1524" layer="21"/>
<wire x1="-0.7" y1="-2.3" x2="0.7" y2="-2.3" width="0.1524" layer="21"/>
<wire x1="0.7" y1="-2.3" x2="0.7" y2="-1.8" width="0.1524" layer="21"/>
<wire x1="0.7" y1="-1.8" x2="0.7" y2="-1.3" width="0.1524" layer="21"/>
<wire x1="0.7" y1="-1.3" x2="0.7" y2="-0.8" width="0.1524" layer="21"/>
<wire x1="0.7" y1="-0.8" x2="0.7" y2="-0.3" width="0.1524" layer="21"/>
<wire x1="0.7" y1="-0.3" x2="0.7" y2="2.3" width="0.1524" layer="21"/>
<wire x1="-0.7" y1="-0.8" x2="0.7" y2="-0.8" width="0.1524" layer="21"/>
<wire x1="-0.7" y1="-1.3" x2="0.7" y2="-1.3" width="0.1524" layer="21"/>
<wire x1="-0.7" y1="-1.8" x2="0.7" y2="-1.8" width="0.1524" layer="21"/>
</package>
<package name="SMD_TACT_SWITCH">
<smd name="1" x="-2.25" y="5" dx="0.8" dy="1.7" layer="1" roundness="100"/>
<smd name="2" x="-2.25" y="-5" dx="0.8" dy="1.7" layer="1" roundness="100"/>
<smd name="4" x="2.25" y="5" dx="0.8" dy="1.7" layer="1" roundness="100"/>
<smd name="3" x="2.25" y="-5" dx="0.8" dy="1.7" layer="1" roundness="100"/>
<wire x1="-3" y1="3" x2="-3" y2="-3" width="0.1524" layer="21"/>
<wire x1="-3" y1="-3" x2="3" y2="-3" width="0.1524" layer="21"/>
<wire x1="3" y1="-3" x2="3" y2="3" width="0.1524" layer="21"/>
<wire x1="3" y1="3" x2="-3" y2="3" width="0.1524" layer="21"/>
<circle x="0" y="0" radius="1.7029375" width="0.1524" layer="21"/>
<text x="-3.3" y="-3" size="1.27" layer="25" rot="R90">&gt;NAME</text>
</package>
<package name="TQFP_32">
<smd name="1" x="-4.4" y="2.8" dx="2" dy="0.55" layer="1" roundness="100"/>
<smd name="2" x="-4.4" y="2" dx="2" dy="0.55" layer="1" roundness="100"/>
<smd name="3" x="-4.4" y="1.2" dx="2" dy="0.55" layer="1" roundness="100"/>
<smd name="4" x="-4.4" y="0.4" dx="2" dy="0.55" layer="1" roundness="100"/>
<smd name="5" x="-4.4" y="-0.4" dx="2" dy="0.55" layer="1" roundness="100"/>
<smd name="6" x="-4.4" y="-1.2" dx="2" dy="0.55" layer="1" roundness="100"/>
<smd name="7" x="-4.4" y="-2" dx="2" dy="0.55" layer="1" roundness="100"/>
<smd name="8" x="-4.4" y="-2.8" dx="2" dy="0.55" layer="1" roundness="100"/>
<smd name="9" x="-2.8" y="-4.4" dx="2" dy="0.55" layer="1" roundness="100" rot="R90"/>
<smd name="10" x="-2" y="-4.4" dx="2" dy="0.55" layer="1" roundness="100" rot="R90"/>
<smd name="11" x="-1.2" y="-4.4" dx="2" dy="0.55" layer="1" roundness="100" rot="R90"/>
<smd name="12" x="-0.4" y="-4.4" dx="2" dy="0.55" layer="1" roundness="100" rot="R90"/>
<smd name="13" x="0.4" y="-4.4" dx="2" dy="0.55" layer="1" roundness="100" rot="R90"/>
<smd name="14" x="1.2" y="-4.4" dx="2" dy="0.55" layer="1" roundness="100" rot="R90"/>
<smd name="15" x="2" y="-4.4" dx="2" dy="0.55" layer="1" roundness="100" rot="R90"/>
<smd name="16" x="2.8" y="-4.4" dx="2" dy="0.55" layer="1" roundness="100" rot="R90"/>
<smd name="17" x="4.4" y="-2.8" dx="2" dy="0.55" layer="1" roundness="100" rot="R180"/>
<smd name="18" x="4.4" y="-2" dx="2" dy="0.55" layer="1" roundness="100" rot="R180"/>
<smd name="19" x="4.4" y="-1.2" dx="2" dy="0.55" layer="1" roundness="100" rot="R180"/>
<smd name="20" x="4.4" y="-0.4" dx="2" dy="0.55" layer="1" roundness="100" rot="R180"/>
<smd name="21" x="4.4" y="0.4" dx="2" dy="0.55" layer="1" roundness="100" rot="R180"/>
<smd name="22" x="4.4" y="1.2" dx="2" dy="0.55" layer="1" roundness="100" rot="R180"/>
<smd name="23" x="4.4" y="2" dx="2" dy="0.55" layer="1" roundness="100" rot="R180"/>
<smd name="24" x="4.4" y="2.8" dx="2" dy="0.55" layer="1" roundness="100" rot="R180"/>
<smd name="25" x="2.8" y="4.4" dx="2" dy="0.55" layer="1" roundness="100" rot="R270"/>
<smd name="26" x="2" y="4.4" dx="2" dy="0.55" layer="1" roundness="100" rot="R270"/>
<smd name="27" x="1.2" y="4.4" dx="2" dy="0.55" layer="1" roundness="100" rot="R270"/>
<smd name="28" x="0.4" y="4.4" dx="2" dy="0.55" layer="1" roundness="100" rot="R270"/>
<smd name="29" x="-0.4" y="4.4" dx="2" dy="0.55" layer="1" roundness="100" rot="R270"/>
<smd name="30" x="-1.2" y="4.4" dx="2" dy="0.55" layer="1" roundness="100" rot="R270"/>
<smd name="31" x="-2" y="4.4" dx="2" dy="0.55" layer="1" roundness="100" rot="R270"/>
<smd name="32" x="-2.8" y="4.4" dx="2" dy="0.55" layer="1" roundness="100" rot="R270"/>
<wire x1="3" y1="3" x2="-3" y2="3" width="0.1524" layer="51"/>
<wire x1="-3" y1="3" x2="-3" y2="-3" width="0.1524" layer="51"/>
<wire x1="-3" y1="-3" x2="3" y2="-3" width="0.1524" layer="51"/>
<wire x1="3" y1="-3" x2="3" y2="3" width="0.1524" layer="51"/>
<circle x="-5.1" y="3.9" radius="0.14141875" width="0.3048" layer="51"/>
<circle x="-2.2" y="2.2" radius="0.22360625" width="0.508" layer="51"/>
<text x="-2.7" y="0.03" size="1.27" layer="25">&gt;NAME</text>
<text x="-2.7" y="-1.97" size="1.27" layer="27">&gt;VALUE</text>
</package>
<package name="0603">
<smd name="1" x="-0.85" y="0" dx="1.2" dy="1" layer="1" roundness="25"/>
<smd name="2" x="0.85" y="0" dx="1.2" dy="1" layer="1" roundness="25"/>
<wire x1="-1.6" y1="0.65" x2="1.6" y2="0.65" width="0.05" layer="21"/>
<wire x1="1.6" y1="0.65" x2="1.6" y2="-0.65" width="0.05" layer="21"/>
<wire x1="1.6" y1="-0.65" x2="-1.6" y2="-0.65" width="0.05" layer="21"/>
<wire x1="-1.6" y1="-0.65" x2="-1.6" y2="0.65" width="0.05" layer="21"/>
<text x="-1.6" y="0.9" size="1.27" layer="25">&gt;NAME</text>
<text x="-1.6" y="-2.1" size="1.27" layer="27">&gt;VALUE</text>
</package>
<package name="1210">
<smd name="1" x="-1.45" y="0" dx="2.7" dy="1.2" layer="1" roundness="25" rot="R90"/>
<smd name="2" x="1.45" y="0" dx="2.7" dy="1.2" layer="1" roundness="25" rot="R90"/>
<wire x1="-2.2" y1="1.5" x2="2.2" y2="1.5" width="0.05" layer="21"/>
<wire x1="2.2" y1="1.5" x2="2.2" y2="-1.5" width="0.05" layer="21"/>
<wire x1="2.2" y1="-1.5" x2="-2.2" y2="-1.5" width="0.05" layer="21"/>
<wire x1="-2.2" y1="-1.5" x2="-2.2" y2="1.5" width="0.05" layer="21"/>
<text x="-2.2" y="1.7" size="1.27" layer="25">&gt;NAME</text>
<text x="-2.2" y="-3" size="1.27" layer="27">&gt;VALUE</text>
</package>
<package name="SMD_1X8_PINSTRIP">
<smd name="P$1" x="-1.5" y="8.89" dx="2.4" dy="0.7" layer="1" roundness="100"/>
<smd name="P$2" x="1.5" y="6.35" dx="2.4" dy="0.7" layer="1" roundness="100"/>
<smd name="P$3" x="-1.5" y="3.81" dx="2.4" dy="0.7" layer="1" roundness="100"/>
<smd name="P$4" x="1.5" y="1.27" dx="2.4" dy="0.7" layer="1" roundness="100"/>
<smd name="P$5" x="-1.5" y="-1.27" dx="2.4" dy="0.7" layer="1" roundness="100"/>
<smd name="P$6" x="1.5" y="-3.81" dx="2.4" dy="0.7" layer="1" roundness="100"/>
<smd name="P$7" x="-1.5" y="-6.35" dx="2.4" dy="0.7" layer="1" roundness="100"/>
<smd name="P$8" x="1.5" y="-8.89" dx="2.4" dy="0.7" layer="1" roundness="100"/>
<text x="-2.7" y="9.5" size="1.27" layer="25">&gt;NAME</text>
<text x="-2.7" y="-10.8" size="1.27" layer="27">&gt;VALUE</text>
<circle x="0" y="8.9" radius="0.1" width="0.254" layer="21"/>
<circle x="0" y="6.4" radius="0.1" width="0.254" layer="21"/>
<circle x="0" y="3.8" radius="0.1" width="0.254" layer="21"/>
<circle x="0" y="1.3" radius="0.1" width="0.254" layer="21"/>
<circle x="0" y="-1.3" radius="0.1" width="0.254" layer="21"/>
<circle x="0" y="-3.8" radius="0.1" width="0.254" layer="21"/>
<circle x="0" y="-6.4" radius="0.1" width="0.254" layer="21"/>
<circle x="0" y="-8.9" radius="0.1" width="0.254" layer="21"/>
</package>
</packages>
</library>
</libraries>
<attributes>
</attributes>
<variantdefs>
</variantdefs>
<classes>
<class number="0" name="default" width="0.3048" drill="0.3048">
<clearance class="0" value="0.2032"/>
</class>
<class number="1" name="gnd" width="0" drill="0">
<clearance class="1" value="0.3048"/>
</class>
</classes>
<designrules name="default *">
<description language="de">&lt;b&gt;EAGLE Design Rules&lt;/b&gt;
&lt;p&gt;
Die Standard-Design-Rules sind so gewählt, dass sie für 
die meisten Anwendungen passen. Sollte ihre Platine 
besondere Anforderungen haben, treffen Sie die erforderlichen
Einstellungen hier und speichern die Design Rules unter 
einem neuen Namen ab.</description>
<description language="en">&lt;b&gt;EAGLE Design Rules&lt;/b&gt;
&lt;p&gt;
The default Design Rules have been set to cover
a wide range of applications. Your particular design
may have different requirements, so please make the
necessary adjustments and save your customized
design rules under a new name.</description>
<param name="layerSetup" value="(1*16)"/>
<param name="mtCopper" value="0.035mm 0.035mm 0.035mm 0.035mm 0.035mm 0.035mm 0.035mm 0.035mm 0.035mm 0.035mm 0.035mm 0.035mm 0.035mm 0.035mm 0.035mm 0.035mm"/>
<param name="mtIsolate" value="1.5mm 0.15mm 0.2mm 0.15mm 0.2mm 0.15mm 0.2mm 0.15mm 0.2mm 0.15mm 0.2mm 0.15mm 0.2mm 0.15mm 0.2mm"/>
<param name="mdWireWire" value="12mil"/>
<param name="mdWirePad" value="12mil"/>
<param name="mdWireVia" value="12mil"/>
<param name="mdPadPad" value="8mil"/>
<param name="mdPadVia" value="12mil"/>
<param name="mdViaVia" value="12mil"/>
<param name="mdSmdPad" value="8mil"/>
<param name="mdSmdVia" value="8mil"/>
<param name="mdSmdSmd" value="8mil"/>
<param name="mdViaViaSameLayer" value="6mil"/>
<param name="mnLayersViaInSmd" value="2"/>
<param name="mdCopperDimension" value="40mil"/>
<param name="mdDrill" value="6mil"/>
<param name="mdSmdStop" value="0mil"/>
<param name="msWidth" value="6mil"/>
<param name="msDrill" value="0.35mm"/>
<param name="msMicroVia" value="9.99mm"/>
<param name="msBlindViaRatio" value="0.5"/>
<param name="rvPadTop" value="0.25"/>
<param name="rvPadInner" value="0.25"/>
<param name="rvPadBottom" value="0.25"/>
<param name="rvViaOuter" value="0.25"/>
<param name="rvViaInner" value="0.25"/>
<param name="rvMicroViaOuter" value="0.25"/>
<param name="rvMicroViaInner" value="0.25"/>
<param name="rlMinPadTop" value="10mil"/>
<param name="rlMaxPadTop" value="20mil"/>
<param name="rlMinPadInner" value="10mil"/>
<param name="rlMaxPadInner" value="20mil"/>
<param name="rlMinPadBottom" value="10mil"/>
<param name="rlMaxPadBottom" value="20mil"/>
<param name="rlMinViaOuter" value="8mil"/>
<param name="rlMaxViaOuter" value="20mil"/>
<param name="rlMinViaInner" value="8mil"/>
<param name="rlMaxViaInner" value="20mil"/>
<param name="rlMinMicroViaOuter" value="4mil"/>
<param name="rlMaxMicroViaOuter" value="20mil"/>
<param name="rlMinMicroViaInner" value="4mil"/>
<param name="rlMaxMicroViaInner" value="20mil"/>
<param name="psTop" value="-1"/>
<param name="psBottom" value="-1"/>
<param name="psFirst" value="-1"/>
<param name="psElongationLong" value="100"/>
<param name="psElongationOffset" value="100"/>
<param name="mvStopFrame" value="1"/>
<param name="mvCreamFrame" value="0"/>
<param name="mlMinStopFrame" value="4mil"/>
<param name="mlMaxStopFrame" value="4mil"/>
<param name="mlMinCreamFrame" value="0mil"/>
<param name="mlMaxCreamFrame" value="0mil"/>
<param name="mlViaStopLimit" value="0mil"/>
<param name="srRoundness" value="0"/>
<param name="srMinRoundness" value="0mil"/>
<param name="srMaxRoundness" value="0mil"/>
<param name="slThermalIsolate" value="10mil"/>
<param name="slThermalsForVias" value="0"/>
<param name="dpMaxLengthDifference" value="10mm"/>
<param name="dpGapFactor" value="2.5"/>
<param name="checkAngle" value="0"/>
<param name="checkFont" value="1"/>
<param name="checkRestrict" value="1"/>
<param name="checkStop" value="0"/>
<param name="checkValues" value="0"/>
<param name="checkNames" value="1"/>
<param name="checkWireStubs" value="1"/>
<param name="checkPolygonWidth" value="0"/>
<param name="useDiameter" value="13"/>
<param name="maxErrors" value="50"/>
</designrules>
<autorouter>
<pass name="Default">
<param name="RoutingGrid" value="50mil"/>
<param name="AutoGrid" value="1"/>
<param name="Efforts" value="0"/>
<param name="TopRouterVariant" value="1"/>
<param name="tpViaShape" value="round"/>
<param name="PrefDir.1" value="a"/>
<param name="PrefDir.2" value="0"/>
<param name="PrefDir.3" value="0"/>
<param name="PrefDir.4" value="0"/>
<param name="PrefDir.5" value="0"/>
<param name="PrefDir.6" value="0"/>
<param name="PrefDir.7" value="0"/>
<param name="PrefDir.8" value="0"/>
<param name="PrefDir.9" value="0"/>
<param name="PrefDir.10" value="0"/>
<param name="PrefDir.11" value="0"/>
<param name="PrefDir.12" value="0"/>
<param name="PrefDir.13" value="0"/>
<param name="PrefDir.14" value="0"/>
<param name="PrefDir.15" value="0"/>
<param name="PrefDir.16" value="a"/>
<param name="cfVia" value="8"/>
<param name="cfNonPref" value="5"/>
<param name="cfChangeDir" value="2"/>
<param name="cfOrthStep" value="2"/>
<param name="cfDiagStep" value="3"/>
<param name="cfExtdStep" value="0"/>
<param name="cfBonusStep" value="1"/>
<param name="cfMalusStep" value="1"/>
<param name="cfPadImpact" value="4"/>
<param name="cfSmdImpact" value="4"/>
<param name="cfBusImpact" value="0"/>
<param name="cfHugging" value="3"/>
<param name="cfAvoid" value="4"/>
<param name="cfPolygon" value="10"/>
<param name="cfBase.1" value="0"/>
<param name="cfBase.2" value="1"/>
<param name="cfBase.3" value="1"/>
<param name="cfBase.4" value="1"/>
<param name="cfBase.5" value="1"/>
<param name="cfBase.6" value="1"/>
<param name="cfBase.7" value="1"/>
<param name="cfBase.8" value="1"/>
<param name="cfBase.9" value="1"/>
<param name="cfBase.10" value="1"/>
<param name="cfBase.11" value="1"/>
<param name="cfBase.12" value="1"/>
<param name="cfBase.13" value="1"/>
<param name="cfBase.14" value="1"/>
<param name="cfBase.15" value="1"/>
<param name="cfBase.16" value="0"/>
<param name="mnVias" value="20"/>
<param name="mnSegments" value="9999"/>
<param name="mnExtdSteps" value="9999"/>
<param name="mnRipupLevel" value="10"/>
<param name="mnRipupSteps" value="100"/>
<param name="mnRipupTotal" value="100"/>
</pass>
<pass name="Follow-me" refer="Default" active="yes">
</pass>
<pass name="Busses" refer="Default" active="yes">
<param name="cfNonPref" value="4"/>
<param name="cfBusImpact" value="4"/>
<param name="cfHugging" value="0"/>
<param name="mnVias" value="0"/>
</pass>
<pass name="Route" refer="Default" active="yes">
</pass>
<pass name="Optimize1" refer="Default" active="yes">
<param name="cfVia" value="99"/>
<param name="cfExtdStep" value="10"/>
<param name="cfHugging" value="1"/>
<param name="mnExtdSteps" value="1"/>
<param name="mnRipupLevel" value="0"/>
</pass>
<pass name="Optimize2" refer="Optimize1" active="yes">
<param name="cfNonPref" value="0"/>
<param name="cfChangeDir" value="6"/>
<param name="cfExtdStep" value="0"/>
<param name="cfBonusStep" value="2"/>
<param name="cfMalusStep" value="2"/>
<param name="cfPadImpact" value="2"/>
<param name="cfSmdImpact" value="2"/>
<param name="cfHugging" value="0"/>
</pass>
<pass name="Optimize3" refer="Optimize2" active="yes">
<param name="cfChangeDir" value="8"/>
<param name="cfPadImpact" value="0"/>
<param name="cfSmdImpact" value="0"/>
</pass>
<pass name="Optimize4" refer="Optimize3" active="yes">
<param name="cfChangeDir" value="25"/>
</pass>
</autorouter>
<elements>
<element name="ISP" library="con-lstb" library_urn="urn:adsk.eagle:library:162" package="MA03-2" package3d_urn="urn:adsk.eagle:package:8334/1" value="" x="20.32" y="67.31" smashed="yes" rot="R270">
<attribute name="MF" value="" x="20.32" y="67.31" size="1.778" layer="27" rot="R270" display="off"/>
<attribute name="MPN" value="" x="20.32" y="67.31" size="1.778" layer="27" rot="R270" display="off"/>
<attribute name="NAME" x="23.241" y="71.12" size="1.27" layer="25" ratio="10" rot="R270"/>
<attribute name="OC_FARNELL" value="unknown" x="20.32" y="67.31" size="1.778" layer="27" rot="R270" display="off"/>
<attribute name="OC_NEWARK" value="unknown" x="20.32" y="67.31" size="1.778" layer="27" rot="R270" display="off"/>
<attribute name="VALUE" x="16.129" y="68.58" size="1.27" layer="27" ratio="10" rot="R270"/>
</element>
<element name="U2" library="snake-328-hw-smd" package="SOT23_6" value="MCP1640SOT23_6" x="36.83" y="63.5" smashed="yes" rot="R270">
<attribute name="NAME" x="36.322" y="65.913" size="1.016" layer="25" ratio="10" rot="SR0"/>
<attribute name="VALUE" x="32.7914" y="69.0372" size="2.0828" layer="27" ratio="10" rot="SR270"/>
</element>
<element name="BAT" library="pinhead" library_urn="urn:adsk.eagle:library:325" package="1X02" package3d_urn="urn:adsk.eagle:package:22435/2" value="" x="40.64" y="52.07" smashed="yes" rot="R180">
<attribute name="NAME" x="43.2562" y="50.2412" size="1.27" layer="25" ratio="10" rot="R180"/>
<attribute name="VALUE" x="43.18" y="55.245" size="1.27" layer="27" rot="R180"/>
</element>
<element name="R1" library="snake-328-hw-smd" package="0603" value="510k" x="34.925" y="60.198" smashed="yes">
<attribute name="MOUSER_CODE" value="" x="34.925" y="60.198" size="1.778" layer="27" display="off"/>
<attribute name="NAME" x="31.75" y="57.658" size="1.27" layer="25"/>
<attribute name="VALUE" x="34.29" y="57.658" size="1.27" layer="27"/>
</element>
<element name="R2" library="snake-328-hw-smd" package="0603" value="300k" x="36.83" y="57.785" smashed="yes">
<attribute name="MOUSER_CODE" value="" x="36.83" y="57.785" size="1.778" layer="27" display="off"/>
<attribute name="NAME" x="36.195" y="55.245" size="1.27" layer="25"/>
<attribute name="VALUE" x="36.195" y="55.245" size="1.27" layer="27"/>
</element>
<element name="C1" library="snake-328-hw-smd" package="0603" value="4.7uF" x="40.005" y="62.484" smashed="yes" rot="R270">
<attribute name="MOUSER_CODE" value="" x="40.005" y="62.484" size="1.778" layer="27" rot="R270" display="off"/>
<attribute name="NAME" x="39.497" y="58.928" size="1.27" layer="25"/>
<attribute name="VALUE" x="37.465" y="63.754" size="1.27" layer="27" rot="R270"/>
</element>
<element name="C2" library="snake-328-hw-smd" package="0603" value="10uF" x="33.274" y="64.262" smashed="yes" rot="R90">
<attribute name="MOUSER_CODE" value="" x="33.274" y="64.262" size="1.778" layer="27" rot="R90" display="off"/>
<attribute name="NAME" x="32.258" y="66.548" size="1.27" layer="25"/>
<attribute name="VALUE" x="35.814" y="62.992" size="1.27" layer="27" rot="R90"/>
</element>
<element name="L1" library="snake-328-hw-smd" package="1210" value="4.7uF" x="43.18" y="62.738" smashed="yes" rot="R90">
<attribute name="NAME" x="44.704" y="59.944" size="1.27" layer="25" rot="R180"/>
<attribute name="VALUE" x="46.355" y="60.833" size="1.27" layer="27" rot="R90"/>
</element>
<element name="C3" library="snake-328-hw-smd" package="0603" value="100n" x="22.098" y="56.769" smashed="yes" rot="R180">
<attribute name="MOUSER_CODE" value="" x="22.098" y="56.769" size="1.778" layer="27" rot="R180" display="off"/>
<attribute name="NAME" x="23.368" y="55.499" size="1.27" layer="25" rot="R180"/>
<attribute name="VALUE" x="23.368" y="59.309" size="1.27" layer="27" rot="R180"/>
</element>
<element name="S1" library="snake-328-hw-smd" package="JS202011SCQN" value="SWJS202011SCQN" x="-77.47" y="-12.7" smashed="yes">
<attribute name="NAME" x="-79.27" y="-7.9" size="1.27" layer="25"/>
</element>
<element name="S2" library="snake-328-hw-smd" package="SMD_TACT_SWITCH" value="PUSH_BUTTON" x="-86.36" y="-12.7" smashed="yes">
<attribute name="NAME" x="-89.66" y="-15.7" size="1.27" layer="25" rot="R90"/>
</element>
<element name="S3" library="snake-328-hw-smd" package="SMD_TACT_SWITCH" value="PUSH_BUTTON" x="-95.25" y="-12.7" smashed="yes">
<attribute name="NAME" x="-98.55" y="-15.7" size="1.27" layer="25" rot="R90"/>
</element>
<element name="S4" library="snake-328-hw-smd" package="SMD_TACT_SWITCH" value="PUSH_BUTTON" x="-104.14" y="-12.7" smashed="yes">
<attribute name="NAME" x="-107.44" y="-15.7" size="1.27" layer="25" rot="R90"/>
</element>
<element name="S5" library="snake-328-hw-smd" package="SMD_TACT_SWITCH" value="PUSH_BUTTON" x="-113.03" y="-12.7" smashed="yes">
<attribute name="NAME" x="-116.33" y="-15.7" size="1.27" layer="25" rot="R90"/>
</element>
<element name="S6" library="snake-328-hw-smd" package="SMD_TACT_SWITCH" value="PUSH_BUTTON" x="-121.92" y="-12.7" smashed="yes">
<attribute name="NAME" x="-125.22" y="-15.7" size="1.27" layer="25" rot="R90"/>
</element>
<element name="S7" library="snake-328-hw-smd" package="SMD_TACT_SWITCH" value="PUSH_BUTTON" x="-130.81" y="-12.7" smashed="yes">
<attribute name="NAME" x="-134.11" y="-15.7" size="1.27" layer="25" rot="R90"/>
</element>
<element name="U1" library="snake-328-hw-smd" package="TQFP_32" value="ATMEGA328PBTQFP_32" x="-63.5" y="-12.7" smashed="yes">
<attribute name="NAME" x="-66.2" y="-12.67" size="1.27" layer="25"/>
<attribute name="VALUE" x="-66.2" y="-14.67" size="1.27" layer="27"/>
</element>
<element name="XA1" library="snake-328-hw-smd" package="SMD_1X8_PINSTRIP" value="PINHD_SMD" x="27.4" y="75.7" smashed="yes" rot="R90">
<attribute name="NAME" x="17.9" y="73" size="1.27" layer="25" rot="R90"/>
<attribute name="VALUE" x="38.2" y="73" size="1.27" layer="27" rot="R90"/>
</element>
<element name="XA2" library="snake-328-hw-smd" package="SMD_1X8_PINSTRIP" value="PINHD_SMD" x="-148.5" y="-7.3" smashed="yes">
<attribute name="NAME" x="-151.2" y="2.2" size="1.27" layer="25"/>
<attribute name="VALUE" x="-151.2" y="-18.1" size="1.27" layer="27"/>
</element>
</elements>
<signals>
<signal name="GND" class="1">
<polygon width="0.3048" layer="1">
<vertex x="-1.27" y="80.01"/>
<vertex x="-1.27" y="-1.27"/>
<vertex x="50.8" y="-1.27"/>
<vertex x="50.8" y="54.61"/>
<vertex x="27.94" y="54.61"/>
<vertex x="27.94" y="66.548"/>
<vertex x="50.8" y="66.548"/>
<vertex x="50.8" y="80.01"/>
</polygon>
<contactref element="ISP" pad="6"/>
<polygon width="0.3048" layer="16">
<vertex x="-1.27" y="80.01"/>
<vertex x="-1.27" y="-1.27"/>
<vertex x="50.8" y="-1.27"/>
<vertex x="50.8" y="80.01"/>
</polygon>
<contactref element="BAT" pad="2"/>
<contactref element="U2" pad="2"/>
<contactref element="R2" pad="2"/>
<contactref element="C1" pad="1"/>
<contactref element="C2" pad="2"/>
<wire x1="40.005" y1="63.334" x2="39.812" y2="63.627" width="0.3048" layer="1"/>
<wire x1="37.084" y1="63.627" x2="36.83" y2="63.881" width="0.4064" layer="1"/>
<wire x1="36.83" y1="63.881" x2="36.83" y2="64.8" width="0.4064" layer="1"/>
<wire x1="39.812" y1="63.627" x2="37.084" y2="63.627" width="0.4064" layer="1"/>
<wire x1="36.83" y1="64.8" x2="36.83" y2="65.913" width="0.4064" layer="1"/>
<wire x1="36.83" y1="65.913" x2="36.322" y2="66.421" width="0.4064" layer="1"/>
<wire x1="36.322" y1="66.421" x2="35.56" y2="66.421" width="0.4064" layer="1"/>
<wire x1="35.56" y1="66.421" x2="33.909" y2="66.421" width="0.4064" layer="1"/>
<wire x1="33.909" y1="66.421" x2="33.274" y2="65.786" width="0.4064" layer="1"/>
<wire x1="33.274" y1="65.786" x2="33.274" y2="65.112" width="0.4064" layer="1"/>
<wire x1="34.29" y1="67.691" x2="34.29" y2="68.58" width="0.4064" layer="1"/>
<polygon width="0.3048" layer="1" thermals="no">
<vertex x="37.211" y="58.674"/>
<vertex x="37.211" y="53.34"/>
<vertex x="41.275" y="53.34"/>
<vertex x="41.275" y="58.674"/>
</polygon>
<contactref element="C3" pad="2"/>
<wire x1="35.56" y1="66.421" x2="34.29" y2="67.691" width="0.3048" layer="1"/>
<contactref element="S2" pad="3"/>
<contactref element="S2" pad="4"/>
<contactref element="S3" pad="3"/>
<contactref element="S3" pad="4"/>
<contactref element="S4" pad="3"/>
<contactref element="S4" pad="4"/>
<contactref element="S5" pad="3"/>
<contactref element="S5" pad="4"/>
<contactref element="S6" pad="3"/>
<contactref element="S6" pad="4"/>
<contactref element="S7" pad="3"/>
<contactref element="S7" pad="4"/>
<contactref element="U1" pad="21"/>
<contactref element="U1" pad="5"/>
<contactref element="XA1" pad="P$1"/>
<contactref element="XA2" pad="P$1"/>
<wire x1="-128.56" y1="-7.7" x2="-150" y2="1.59" width="0" layer="19" extent="1-1"/>
<wire x1="-119.67" y1="-7.7" x2="-128.56" y2="-7.7" width="0" layer="19" extent="1-1"/>
<wire x1="-110.78" y1="-7.7" x2="-119.67" y2="-7.7" width="0" layer="19" extent="1-1"/>
<wire x1="-101.89" y1="-7.7" x2="-110.78" y2="-7.7" width="0" layer="19" extent="1-1"/>
<wire x1="-93" y1="-7.7" x2="-101.89" y2="-7.7" width="0" layer="19" extent="1-1"/>
<wire x1="-84.11" y1="-7.7" x2="-93" y2="-7.7" width="0" layer="19" extent="1-1"/>
<wire x1="-128.56" y1="-17.7" x2="-128.56" y2="-7.7" width="0" layer="19" extent="1-1"/>
<wire x1="-119.67" y1="-17.7" x2="-128.56" y2="-17.7" width="0" layer="19" extent="1-1"/>
<wire x1="-110.78" y1="-17.7" x2="-119.67" y2="-17.7" width="0" layer="19" extent="1-1"/>
<wire x1="-101.89" y1="-17.7" x2="-110.78" y2="-17.7" width="0" layer="19" extent="1-1"/>
<wire x1="-93" y1="-17.7" x2="-101.89" y2="-17.7" width="0" layer="19" extent="1-1"/>
<wire x1="-84.11" y1="-17.7" x2="-93" y2="-17.7" width="0" layer="19" extent="1-1"/>
<wire x1="-67.9" y1="-13.1" x2="-84.11" y2="-17.7" width="0" layer="19" extent="1-1"/>
<wire x1="-59.1" y1="-12.3" x2="-67.9" y2="-13.1" width="0" layer="19" extent="1-1"/>
<wire x1="21.248" y1="56.769" x2="-59.1" y2="-12.3" width="0" layer="19" extent="1-1"/>
</signal>
<signal name="N$1">
<contactref element="U1" pad="10"/>
<contactref element="XA1" pad="P$8"/>
<wire x1="-65.5" y1="-17.1" x2="36.29" y2="77.2" width="0" layer="19" extent="1-1"/>
</signal>
<signal name="N$2">
<contactref element="U1" pad="14"/>
<contactref element="XA1" pad="P$7"/>
<wire x1="-62.3" y1="-17.1" x2="33.75" y2="74.2" width="0" layer="19" extent="1-1"/>
</signal>
<signal name="N$3">
<contactref element="U1" pad="11"/>
<contactref element="XA1" pad="P$6"/>
<wire x1="-64.7" y1="-17.1" x2="31.21" y2="77.2" width="0" layer="19" extent="1-1"/>
</signal>
<signal name="N$4">
<contactref element="ISP" pad="4"/>
<wire x1="22.86" y1="67.31" x2="24.13" y2="68.58" width="0.3048" layer="16"/>
<wire x1="22.86" y1="67.31" x2="21.59" y2="67.31" width="0.3048" layer="16"/>
<via x="17.78" y="62.23" extent="1-16" drill="0.5" diameter="0.85"/>
<wire x1="17.78" y1="62.23" x2="11.938" y2="62.23" width="0.3048" layer="16"/>
<wire x1="11.938" y1="62.23" x2="11.938" y2="62.103" width="0.3048" layer="16"/>
<via x="11.938" y="62.103" extent="1-16" drill="0.5" diameter="0.85"/>
<wire x1="11.938" y1="62.103" x2="11.938" y2="60.2046" width="0.3048" layer="1"/>
<wire x1="21.59" y1="67.31" x2="22.86" y2="67.31" width="0.3048" layer="1"/>
<wire x1="22.86" y1="67.31" x2="24.13" y2="66.04" width="0.3048" layer="1"/>
<wire x1="24.13" y1="66.04" x2="24.13" y2="63.5" width="0.3048" layer="1"/>
<wire x1="24.13" y1="63.5" x2="22.86" y2="62.23" width="0.3048" layer="1"/>
<wire x1="22.86" y1="62.23" x2="17.78" y2="62.23" width="0.3048" layer="1"/>
<contactref element="U1" pad="15"/>
<contactref element="XA1" pad="P$5"/>
<wire x1="24.13" y1="68.58" x2="28.67" y2="74.2" width="0" layer="19" extent="1-16"/>
<wire x1="-61.5" y1="-17.1" x2="11.938" y2="60.2046" width="0" layer="19" extent="1-1"/>
</signal>
<signal name="N$5">
<contactref element="ISP" pad="3"/>
<wire x1="16.51" y1="68.58" x2="16.51" y2="71.12" width="0.3048" layer="1"/>
<wire x1="16.51" y1="68.58" x2="17.78" y2="67.31" width="0.3048" layer="1"/>
<wire x1="17.78" y1="67.31" x2="19.05" y2="67.31" width="0.3048" layer="1"/>
<wire x1="8.89" y1="63.5" x2="15.24" y2="63.5" width="0.3048" layer="16"/>
<via x="8.89" y="63.5" extent="1-16" drill="0.5" diameter="0.85"/>
<wire x1="8.89" y1="63.5" x2="8.89" y2="59.4674" width="0.3048" layer="1"/>
<wire x1="16.51" y1="71.12" x2="17.78" y2="72.39" width="0.3048" layer="1"/>
<wire x1="17.78" y1="72.39" x2="25.4" y2="72.39" width="0.3048" layer="1"/>
<wire x1="25.4" y1="72.39" x2="26.67" y2="73.66" width="0.3048" layer="1"/>
<wire x1="15.24" y1="63.5" x2="19.05" y2="67.31" width="0.3048" layer="16"/>
<contactref element="U1" pad="17"/>
<contactref element="XA1" pad="P$4"/>
<wire x1="26.67" y1="73.66" x2="26.13" y2="77.2" width="0" layer="19" extent="1-1"/>
<wire x1="-59.1" y1="-15.5" x2="8.89" y2="59.4674" width="0" layer="19" extent="1-1"/>
</signal>
<signal name="VCC">
<contactref element="ISP" pad="2"/>
<wire x1="18.4404" y1="55.4736" x2="23.622" y2="55.4736" width="0.3048" layer="1"/>
<wire x1="23.622" y1="55.4736" x2="24.9936" y2="55.4736" width="0.3048" layer="1"/>
<wire x1="24.9936" y1="55.4736" x2="25.4" y2="55.88" width="0.3048" layer="1"/>
<wire x1="25.4" y1="55.88" x2="25.4" y2="64.77" width="0.3048" layer="1"/>
<wire x1="25.4" y1="64.77" x2="25.4" y2="68.58" width="0.3048" layer="1"/>
<wire x1="25.4" y1="68.58" x2="24.13" y2="69.85" width="0.3048" layer="1"/>
<wire x1="24.13" y1="69.85" x2="21.59" y2="69.85" width="0.3048" layer="1"/>
<contactref element="U2" pad="5"/>
<contactref element="R1" pad="1"/>
<contactref element="C2" pad="1"/>
<wire x1="25.4" y1="68.58" x2="25.4" y2="69.85" width="0.3048" layer="1"/>
<wire x1="25.4" y1="69.85" x2="26.67" y2="71.12" width="0.3048" layer="1"/>
<wire x1="26.67" y1="71.12" x2="27.94" y2="71.12" width="0.3048" layer="1"/>
<wire x1="27.94" y1="71.12" x2="29.21" y2="72.39" width="0.3048" layer="1"/>
<wire x1="36.322" y1="63.373" x2="33.401" y2="63.373" width="0.3048" layer="1"/>
<wire x1="36.83" y1="62.2" x2="36.83" y2="62.865" width="0.3048" layer="1"/>
<wire x1="36.83" y1="62.865" x2="36.322" y2="63.373" width="0.3048" layer="1"/>
<polygon width="0.3048" layer="1" thermals="no">
<vertex x="34.163" y="63.754"/>
<vertex x="34.163" y="55.499"/>
<vertex x="28.702" y="55.499"/>
<vertex x="28.702" y="63.754"/>
</polygon>
<wire x1="33.274" y1="63.412" x2="26.858" y2="63.312" width="0.3048" layer="1"/>
<wire x1="26.858" y1="63.312" x2="25.4" y2="64.77" width="0.3048" layer="1"/>
<contactref element="C3" pad="1"/>
<wire x1="19.107" y1="57.08" x2="20.066" y2="58.039" width="0.3048" layer="1"/>
<wire x1="20.066" y1="58.039" x2="22.733" y2="58.039" width="0.3048" layer="1"/>
<wire x1="22.733" y1="58.039" x2="23.114" y2="57.658" width="0.3048" layer="1"/>
<wire x1="23.114" y1="57.658" x2="23.114" y2="57.404" width="0.3048" layer="1"/>
<wire x1="23.114" y1="57.404" x2="23.241" y2="57.277" width="0.3048" layer="1"/>
<wire x1="23.241" y1="57.277" x2="23.048" y2="57.084" width="0.3048" layer="1"/>
<wire x1="23.048" y1="57.084" x2="22.948" y2="56.769" width="0.3048" layer="1"/>
<wire x1="22.948" y1="56.769" x2="23.048" y2="56.0476" width="0.3048" layer="1"/>
<wire x1="23.048" y1="56.0476" x2="23.622" y2="55.4736" width="0.3048" layer="1"/>
<contactref element="U1" pad="4"/>
<contactref element="XA1" pad="P$3"/>
<wire x1="21.59" y1="69.85" x2="23.59" y2="74.2" width="0" layer="19" extent="1-1"/>
<wire x1="-67.9" y1="-12.3" x2="18.4404" y2="55.4736" width="0" layer="19" extent="1-1"/>
</signal>
<signal name="N$6">
<contactref element="ISP" pad="1"/>
<wire x1="19.05" y1="69.85" x2="17.78" y2="69.85" width="0.3048" layer="16"/>
<wire x1="17.78" y1="69.85" x2="16.51" y2="68.58" width="0.3048" layer="16"/>
<wire x1="16.51" y1="66.04" x2="15.24" y2="64.77" width="0.3048" layer="16"/>
<wire x1="15.24" y1="64.77" x2="11.43" y2="64.77" width="0.3048" layer="16"/>
<via x="11.43" y="64.77" extent="1-16" drill="0.5" diameter="0.85"/>
<wire x1="11.43" y1="64.77" x2="11.1252" y2="64.4652" width="0.3048" layer="1"/>
<wire x1="16.51" y1="68.58" x2="16.51" y2="66.04" width="0.3048" layer="16"/>
<wire x1="11.1252" y1="60.3504" x2="10.16" y2="61.3156" width="0.3048" layer="1"/>
<wire x1="10.16" y1="61.3156" x2="10.16" y2="63.5" width="0.3048" layer="1"/>
<wire x1="10.16" y1="63.5" x2="11.43" y2="64.77" width="0.3048" layer="1"/>
<contactref element="U1" pad="16"/>
<wire x1="11.1252" y1="60.3504" x2="-60.7" y2="-17.1" width="0" layer="19" extent="1-1"/>
</signal>
<signal name="N$8">
<contactref element="ISP" pad="5"/>
<via x="15.24" y="48.26" extent="1-16" drill="0.5" diameter="0.85"/>
<wire x1="15.24" y1="48.26" x2="14.37" y2="49.13" width="0.3048" layer="1"/>
<wire x1="19.05" y1="48.26" x2="20.32" y2="49.53" width="0.3048" layer="16"/>
<wire x1="20.32" y1="49.53" x2="20.32" y2="62.23" width="0.3048" layer="16"/>
<wire x1="20.32" y1="62.23" x2="19.05" y2="63.5" width="0.3048" layer="16"/>
<wire x1="19.05" y1="63.5" x2="19.05" y2="64.77" width="0.3048" layer="16"/>
<wire x1="15.24" y1="48.26" x2="19.05" y2="48.26" width="0.3048" layer="16"/>
<contactref element="U1" pad="29"/>
<wire x1="14.37" y1="49.13" x2="-63.9" y2="-8.3" width="0" layer="19" extent="1-1"/>
</signal>
<signal name="N$7">
<contactref element="S2" pad="2"/>
<contactref element="S2" pad="1"/>
<contactref element="U1" pad="23"/>
<wire x1="-88.61" y1="-7.7" x2="-88.61" y2="-17.7" width="0" layer="19" extent="1-1"/>
<wire x1="-59.1" y1="-10.7" x2="-88.61" y2="-7.7" width="0" layer="19" extent="1-1"/>
</signal>
<signal name="N$9">
<contactref element="S3" pad="2"/>
<contactref element="S3" pad="1"/>
<contactref element="U1" pad="24"/>
<wire x1="-97.5" y1="-7.7" x2="-97.5" y2="-17.7" width="0" layer="19" extent="1-1"/>
<wire x1="-59.1" y1="-9.9" x2="-97.5" y2="-7.7" width="0" layer="19" extent="1-1"/>
</signal>
<signal name="N$10">
<contactref element="S4" pad="2"/>
<contactref element="S4" pad="1"/>
<contactref element="U1" pad="25"/>
<wire x1="-106.39" y1="-7.7" x2="-106.39" y2="-17.7" width="0" layer="19" extent="1-1"/>
<wire x1="-60.7" y1="-8.3" x2="-106.39" y2="-7.7" width="0" layer="19" extent="1-1"/>
</signal>
<signal name="N$11">
<contactref element="S5" pad="2"/>
<contactref element="S5" pad="1"/>
<contactref element="U1" pad="26"/>
<wire x1="-115.28" y1="-7.7" x2="-115.28" y2="-17.7" width="0" layer="19" extent="1-1"/>
<wire x1="-61.5" y1="-8.3" x2="-115.28" y2="-7.7" width="0" layer="19" extent="1-1"/>
</signal>
<signal name="N$12">
<contactref element="S6" pad="2"/>
<contactref element="S6" pad="1"/>
<contactref element="U1" pad="27"/>
<wire x1="-124.17" y1="-7.7" x2="-124.17" y2="-17.7" width="0" layer="19" extent="1-1"/>
<wire x1="-62.3" y1="-8.3" x2="-124.17" y2="-7.7" width="0" layer="19" extent="1-1"/>
</signal>
<signal name="N$13">
<contactref element="S7" pad="2"/>
<contactref element="S7" pad="1"/>
<contactref element="U1" pad="28"/>
<wire x1="-133.06" y1="-7.7" x2="-133.06" y2="-17.7" width="0" layer="19" extent="1-1"/>
<wire x1="-63.1" y1="-8.3" x2="-133.06" y2="-7.7" width="0" layer="19" extent="1-1"/>
</signal>
<signal name="VIN">
<contactref element="U2" pad="6"/>
<contactref element="U2" pad="3"/>
<contactref element="C1" pad="2"/>
<contactref element="L1" pad="1"/>
<polygon width="0.3048" layer="1" thermals="no">
<vertex x="45.72" y="55.626"/>
<vertex x="45.72" y="62.103"/>
<vertex x="37.973" y="62.103"/>
<vertex x="37.973" y="62.738"/>
<vertex x="37.592" y="62.738"/>
<vertex x="37.592" y="59.563"/>
<vertex x="42.545" y="59.563"/>
<vertex x="42.545" y="55.626"/>
</polygon>
<wire x1="35.88" y1="64.8" x2="35.7886" y2="64.897" width="0.3048" layer="1"/>
<wire x1="35.88" y1="64.8" x2="35.0266" y2="64.7954" width="0.3048" layer="1"/>
<wire x1="35.0266" y1="64.7954" x2="34.798" y2="65.024" width="0.3048" layer="1"/>
<via x="34.798" y="65.024" extent="1-16" drill="0.35" diameter="0.85"/>
<wire x1="34.798" y1="65.024" x2="34.798" y2="61.722" width="0.3048" layer="16"/>
<wire x1="34.798" y1="61.722" x2="35.56" y2="60.96" width="0.3048" layer="16"/>
<wire x1="35.56" y1="60.96" x2="38.1" y2="60.96" width="0.3048" layer="16"/>
<wire x1="38.1" y1="60.96" x2="38.608" y2="60.452" width="0.3048" layer="16"/>
<wire x1="38.608" y1="60.452" x2="38.608" y2="60.071" width="0.3048" layer="16"/>
<via x="38.608" y="60.071" extent="1-16" drill="0.35" diameter="0.85"/>
<wire x1="38.608" y1="60.071" x2="38.608" y2="60.137" width="0.3048" layer="1"/>
<wire x1="38.608" y1="60.137" x2="40.005" y2="61.634" width="0.3048" layer="1"/>
<contactref element="S1" pad="1"/>
<contactref element="S1" pad="4"/>
<wire x1="-74.47" y1="-10.2" x2="-80.47" y2="-10.2" width="0" layer="19" extent="1-1"/>
<wire x1="34.798" y1="65.024" x2="-74.47" y2="-10.2" width="0" layer="19" extent="1-1"/>
</signal>
<signal name="FB">
<contactref element="U2" pad="4"/>
<polygon width="0.3048" layer="1" thermals="no">
<vertex x="36.322" y="57.15"/>
<vertex x="36.322" y="60.833"/>
<vertex x="36.1" y="60.833"/>
<vertex x="36.1" y="62.738"/>
<vertex x="35.687" y="62.738"/>
<vertex x="35.687" y="60.833"/>
<vertex x="35.306" y="60.833"/>
<vertex x="35.306" y="57.15"/>
</polygon>
<contactref element="R1" pad="2"/>
<contactref element="R2" pad="1"/>
</signal>
<signal name="N$16">
<contactref element="U2" pad="1"/>
<contactref element="L1" pad="2"/>
<polygon width="0.3048" layer="1" thermals="no">
<vertex x="37.592" y="64.262"/>
<vertex x="38.227" y="64.262"/>
<vertex x="38.227" y="64.77"/>
<vertex x="43.688" y="64.77"/>
<vertex x="43.688" y="63.373"/>
<vertex x="46.228" y="63.373"/>
<vertex x="46.228" y="65.913"/>
<vertex x="37.592" y="65.913"/>
</polygon>
</signal>
<signal name="N$14">
<contactref element="BAT" pad="1"/>
<contactref element="S1" pad="2"/>
<contactref element="S1" pad="5"/>
<wire x1="-74.47" y1="-12.7" x2="41.91" y2="52.07" width="0" layer="19" extent="1-1"/>
<wire x1="-80.47" y1="-12.7" x2="-74.47" y2="-12.7" width="0" layer="19" extent="1-1"/>
</signal>
</signals>
<mfgpreviewcolors>
<mfgpreviewcolor name="soldermaskcolor" color="0xC8008000"/>
<mfgpreviewcolor name="silkscreencolor" color="0xFFFEFEFE"/>
<mfgpreviewcolor name="backgroundcolor" color="0xFF282828"/>
<mfgpreviewcolor name="coppercolor" color="0xFFFFBF00"/>
<mfgpreviewcolor name="substratecolor" color="0xFF786E46"/>
</mfgpreviewcolors>
<errors>
<approved hash="5,1,3852662b728c0882"/>
<approved hash="5,1,3daa67db737c0d7a"/>
<approved hash="5,1,21e267ab72cc10f2"/>
<approved hash="5,1,243a663b729c14ea"/>
<approved hash="5,1,b6449c30e7ecca78"/>
</errors>
</board>
</drawing>
<compatibility>
<note version="6.3" minversion="6.2.2" severity="warning">
Since Version 6.2.2 text objects can contain more than one line,
which will not be processed correctly with this version.
</note>
<note version="8.2" severity="warning">
Since Version 8.2, EAGLE supports online libraries. The ids
of those online libraries will not be understood (or retained)
with this version.
</note>
<note version="8.3" severity="warning">
Since Version 8.3, EAGLE supports URNs for individual library
assets (packages, symbols, and devices). The URNs of those assets
will not be understood (or retained) with this version.
</note>
<note version="8.3" severity="warning">
Since Version 8.3, EAGLE supports the association of 3D packages
with devices in libraries, schematics, and board files. Those 3D
packages will not be understood (or retained) with this version.
</note>
<note version="8.5" severity="warning">
Since Version 8.5, EAGLE supports locking for holes, vias, wires and polygons. 
The locking property on all objects of these types will not be understood in this version. 
</note>
</compatibility>
</eagle>
